Project_student_grades
…
In the next steps several models are trained using resampled data. Afterwards it is checked which model performs best. For this a grid of values is created:

Note: Due to to many different model variations, I have decided to reduce the grid to a maximum of three hyper parameters. Instead of additional hyper parameters, it makes more sense to test more levels in between.

Code

xgboost_grid <- grid_regular(
  trees(),
  min_n(),
  tree_depth(),
  levels = 5
)
xgboost_grid

# A tibble: 125 × 3
   trees min_n tree_depth
   <int> <int>      <int>
 1     1     2          1
 2   500     2          1
 3  1000     2          1
 4  1500     2          1
 5  2000     2          1
 6     1    11          1
 7   500    11          1
 8  1000    11          1
 9  1500    11          1
10  2000    11          1
# ℹ 115 more rows
…
In the next steps several models are trained using resampled data. Afterwards it is checked which model performs best. For this a grid of values is created:

Note: Due to to many different model variations, I have decided to reduce the grid to a maximum of three hyper parameters. Instead of additional hyper parameters, it makes more sense to test more levels in between.

Code

xgboost_grid <- grid_regular(
  trees(),
  min_n(),
  tree_depth(),
  levels = 5
)
xgboost_grid

# A tibble: 125 × 3
   trees min_n tree_depth
   <int> <int>      <int>
 1     1     2          1
 2   500     2          1
 3  1000     2          1
 4  1500     2          1
 5  2000     2          1
 6     1    11          1
 7   500    11          1
 8  1000    11          1
 9  1500    11          1
10  2000    11          1
# ℹ 115 more rows
…
In the next steps several models are trained using resampled data. Afterwards it is checked which model performs best. For this a grid of values is created:

Note: Due to to many different model variations, I have decided to reduce the grid to a maximum of three hyper parameters. Instead of additional hyper parameters, it makes more sense to test more levels in between.

Code

xgboost_grid <- grid_regular(
  trees(),
  min_n(),
  tree_depth(),
  levels = 5
)
xgboost_grid

# A tibble: 125 × 3
   trees min_n tree_depth
   <int> <int>      <int>
 1     1     2          1
 2   500     2          1
 3  1000     2          1
 4  1500     2          1
 5  2000     2          1
 6     1    11          1
 7   500    11          1
 8  1000    11          1
 9  1500    11          1
10  2000    11          1
# ℹ 115 more rows
…
