Project_student_grades
…
The tune() is like a placeholder. After the tuning process single numeric values are selected for each of the hyperparameter.

In the next steps several models are trained using resampled data. Afterwards it is checked which model performs best. For this a grid of values is created:

Code

xgboost_grid <- grid_regular(
  trees(),
  min_n(),
  tree_depth(),
  levels = 5
)
xgboost_grid
## # A tibble: 125 × 3
##    trees min_n tree_depth
##    <int> <int>      <int>
##  1     1     2          1
##  2   500     2          1
##  3  1000     2          1
##  4  1500     2          1
##  5  2000     2          1
##  6     1    11          1
##  7   500    11          1
##  8  1000    11          1
##  9  1500    11          1
## 10  2000    11          1
## # ℹ 115 more rows
…
The tune() is like a placeholder. After the tuning process single numeric values are selected for each of the hyper parameter.

In the next steps several models are trained using resampeled data. Afterwards it is checked which model performs best. For this a grid of values is created:

Code

lin_grid <- grid_regular(
  penalty(),
  mixture(),
  levels = 5
)
lin_grid
## # A tibble: 25 × 2
##         penalty mixture
##           <dbl>   <dbl>
##  1 0.0000000001    0   
##  2 0.0000000316    0   
##  3 0.00001         0   
##  4 0.00316         0   
##  5 1               0   
##  6 0.0000000001    0.25
##  7 0.0000000316    0.25
##  8 0.00001         0.25
##  9 0.00316         0.25
## 10 1               0.25
## # ℹ 15 more rows
…
The tune() is like a placeholder. After the tuning process single numeric values are selected for each of the hyper parameter.

In the next steps several models are trained using resampelled data. Afterwards it is checked which model performs best. For this a grid of values is created:

Code

neural_grid <- grid_regular(
  hidden_units(),
  penalty(),
  epochs(),
  levels = 5
)
neural_grid
## # A tibble: 125 × 3
##    hidden_units      penalty epochs
##           <int>        <dbl>  <int>
##  1            1 0.0000000001     10
##  2            3 0.0000000001     10
##  3            5 0.0000000001     10
##  4            7 0.0000000001     10
##  5           10 0.0000000001     10
##  6            1 0.0000000316     10
##  7            3 0.0000000316     10
##  8            5 0.0000000316     10
##  9            7 0.0000000316     10
## 10           10 0.0000000316     10
## # ℹ 115 more rows
…
The performance of the model on test data is worse than it was on the training data. The RMSE metric increased from 12.1 to 12.77. Probably the model was overfitted a bit on the training data. But the RMSE score is still better than for certain created models in the Modelling phase (on training data).

The R squared value is really low compared to the defined metrics at the project begin. It can be said that all created models are not fulfilling the defined metrics for a successful project. Nevertheless the model will be used for the deployment.

Compare the model with a simple model which only predicts the mean:

Code

mean_model_data <- train_data %>%
  mutate (mean = mean(avg_score))
mean_model_data
## # A tibble: 798 × 10
##    gender ethnic_group parent_education lunch test_prep math_score reading_score
##    <fct>  <fct>        <fct>            <fct> <fct>          <dbl>         <dbl>
##  1 female group B      some high school stan… none              46            61
##  2 male   group B      master's degree  stan… none              53            50
##  3 male   group C      master's degree  free… none              55            54
##  4 male   group E      master's degree  free… none              56            46
##  5 female group C      some college     free… none              35            47
##  6 male   group D      high school      free… none              58            52
##  7 female group D      master's degree  free… none              32            35
##  8 female group A      some high school stan… none              57            53
##  9 male   group C      associate's deg… free… completed         46            46
## 10 female group B      high school      stan… none              52            56
## # ℹ 788 more rows
## # ℹ 3 more variables: writing_score <dbl>, avg_score <dbl>, mean <dbl>
…
